…
## Exercise 1

Retrieve the best model and fit it to the _rides_train_ data set.


```r
all_results %>% 
   rank_results(rank_metric = "rsq") %>% 
  # filter(.metric == "rsq") %>% 
   select(wflow_id, model, .config, rsq = mean, rank)
```

```
## # A tibble: 192 × 5
##    wflow_id        model      .config                  rsq  rank
##    <chr>           <chr>      <chr>                  <dbl> <int>
##  1 simple_boosting boost_tree Preprocessor1_Model10 12.5       1
##  2 simple_boosting boost_tree Preprocessor1_Model10  0.519     1
##  3 simple_boosting boost_tree Preprocessor1_Model23 12.5       2
##  4 simple_boosting boost_tree Preprocessor1_Model23  0.518     2
##  5 simple_boosting boost_tree Preprocessor1_Model24 12.6       3
##  6 simple_boosting boost_tree Preprocessor1_Model24  0.514     3
##  7 simple_boosting boost_tree Preprocessor1_Model15 12.7       4
##  8 simple_boosting boost_tree Preprocessor1_Model15  0.512     4
##  9 simple_boosting boost_tree Preprocessor1_Model13 12.7       5
## 10 simple_boosting boost_tree Preprocessor1_Model13  0.508     5
## # ℹ 182 more rows
```
…
