…
```r
bayes_tune <-
  rf_wkflow %>%
  tune_bayes(resamples = hr_folds,
             initial = rf_only,
             param_info = bayes_param)
bayes_tune
```

```
## # Tuning results
## # Group 5-fold cross-validation 
## # A tibble: 55 × 5
##    splits               id        .metrics          .notes           .iter
##    <list>               <chr>     <list>            <list>           <int>
##  1 <split [10581/2687]> Resample1 <tibble [28 × 6]> <tibble [0 × 3]>     0
##  2 <split [10818/2450]> Resample4 <tibble [28 × 6]> <tibble [0 × 3]>     0
##  3 <split [10747/2521]> Resample5 <tibble [28 × 6]> <tibble [0 × 3]>     0
##  4 <split [10501/2767]> Resample3 <tibble [28 × 6]> <tibble [0 × 3]>     0
##  5 <split [10425/2843]> Resample2 <tibble [28 × 6]> <tibble [0 × 3]>     0
##  6 <split [10581/2687]> Resample1 <tibble [2 × 6]>  <tibble [0 × 3]>     1
##  7 <split [10425/2843]> Resample2 <tibble [2 × 6]>  <tibble [0 × 3]>     1
##  8 <split [10501/2767]> Resample3 <tibble [2 × 6]>  <tibble [0 × 3]>     1
##  9 <split [10818/2450]> Resample4 <tibble [2 × 6]>  <tibble [0 × 3]>     1
## 10 <split [10747/2521]> Resample5 <tibble [2 × 6]>  <tibble [0 × 3]>     1
## # ℹ 45 more rows
## 
## There were issues with some computations:
## 
##   - Warning(s) x5: 13 columns were requested but there were 10 predictors in the dat...
## 
## Run `show_notes(.Last.tune.result)` for more information.
```
…
