…
```r
set.seed(2101)
bootstrapped <- 
  bioChemists %>%
  specify(art ~ fem)  %>%
  generate(reps = 2000, type = "bootstrap") %>%
  calculate(stat = "diff in means", order = c("Men", "Women"))
bootstrapped
```

```
## Response: art (numeric)
## Explanatory: fem (factor)
## # A tibble: 2,000 × 2
##    replicate  stat
##        <int> <dbl>
##  1         1 0.467
##  2         2 0.107
##  3         3 0.467
##  4         4 0.308
##  5         5 0.369
##  6         6 0.428
##  7         7 0.272
##  8         8 0.587
##  9         9 0.468
## 10        10 0.432
## # ℹ 1,990 more rows
```
…
```
## Response: art (numeric)
## Explanatory: fem (factor)
## Null Hypothesis: independence
## # A tibble: 2,000 × 2
##    replicate     stat
##        <int>    <dbl>
##  1         1  0.201  
##  2         2 -0.133  
##  3         3  0.109  
##  4         4 -0.195  
##  5         5 -0.00128
##  6         6 -0.102  
##  7         7 -0.102  
##  8         8 -0.0497 
##  9         9  0.0119 
## 10        10 -0.146  
## # ℹ 1,990 more rows
```
…
set.seed(2104)
bootstrap_models <-
  bootstraps(bioChemists, times = 2000, apparent = TRUE) %>%
  mutate(
    glm = map(splits, ~ fit(log_lin_spec,       glm_form, data = analysis(.x))),
    zip = map(splits, ~ fit(zero_inflated_spec, zip_form, data = analysis(.x)))
  )
bootstrap_models
```

```
## # Bootstrap sampling with apparent sample 
## # A tibble: 2,001 × 4
##    splits            id            glm      zip     
##    <list>            <chr>         <list>   <list>  
##  1 <split [915/355]> Bootstrap0001 <fit[+]> <fit[+]>
##  2 <split [915/333]> Bootstrap0002 <fit[+]> <fit[+]>
##  3 <split [915/337]> Bootstrap0003 <fit[+]> <fit[+]>
##  4 <split [915/344]> Bootstrap0004 <fit[+]> <fit[+]>
##  5 <split [915/351]> Bootstrap0005 <fit[+]> <fit[+]>
##  6 <split [915/354]> Bootstrap0006 <fit[+]> <fit[+]>
##  7 <split [915/326]> Bootstrap0007 <fit[+]> <fit[+]>
##  8 <split [915/336]> Bootstrap0008 <fit[+]> <fit[+]>
##  9 <split [915/338]> Bootstrap0009 <fit[+]> <fit[+]>
## 10 <split [915/349]> Bootstrap0010 <fit[+]> <fit[+]>
## # ℹ 1,991 more rows
```
…
