…
```r
tidymodels_prefer()
library(modeldata)
library(ggplot2)
data("Chicago")
Chicago
```

```
## # A tibble: 5,698 × 50
##    ridership Austin Quincy_Wells Belmont Archer_35th Oak_Park Western Clark_Lake
##        <dbl>  <dbl>        <dbl>   <dbl>       <dbl>    <dbl>   <dbl>      <dbl>
##  1     15.7   1.46         8.37     4.60       2.01     1.42    3.32       15.6 
##  2     15.8   1.50         8.35     4.72       2.09     1.43    3.34       15.7 
##  3     15.9   1.52         8.36     4.68       2.11     1.49    3.36       15.6 
##  4     15.9   1.49         7.85     4.77       2.17     1.44    3.36       15.7 
##  5     15.4   1.50         7.62     4.72       2.06     1.42    3.27       15.6 
##  6      2.42  0.693        0.911    2.27       0.624    0.426   1.11        2.41
##  7      1.47  0.408        0.414    1.63       0.378    0.225   0.567       1.37
##  8     15.5   0.987        4.81     3.52       1.34     0.879   1.94        9.02
##  9     15.9   1.55         8.23     4.71       2.22     1.46    3.46       16.0 
## 10     15.9   1.59         8.25     4.77       2.23     1.48    3.51       15.8 
## # ℹ 5,688 more rows
## # ℹ 42 more variables: Clinton <dbl>, Merchandise_Mart <dbl>,
## #   Irving_Park <dbl>, Washington_Wells <dbl>, Harlem <dbl>, Monroe <dbl>,
## #   Polk <dbl>, Ashland <dbl>, Kedzie <dbl>, Addison <dbl>,
## #   Jefferson_Park <dbl>, Montrose <dbl>, California <dbl>, temp_min <dbl>,
## #   temp <dbl>, temp_max <dbl>, temp_change <dbl>, dew <dbl>, humidity <dbl>,
## #   pressure <dbl>, pressure_change <dbl>, wind <dbl>, wind_max <dbl>, …
```
…
```
## # A tibble: 2 × 4
##   .metric .estimator .estimate .config             
##   <chr>   <chr>          <dbl> <chr>               
## 1 rmse    standard       3.22  Preprocessor1_Model1
## 2 rsq     standard       0.771 Preprocessor1_Model1
```


```r
collect_predictions(final_lm)
```

```
## # A tibble: 1,140 × 5
##    id               .pred  .row ridership .config             
##    <chr>            <dbl> <int>     <dbl> <chr>               
##  1 train/test split 15.3      2     15.8  Preprocessor1_Model1
##  2 train/test split 15.1      3     15.9  Preprocessor1_Model1
##  3 train/test split  4.01     6      2.42 Preprocessor1_Model1
##  4 train/test split  1.75     7      1.47 Preprocessor1_Model1
##  5 train/test split 15.3     11     16.0  Preprocessor1_Model1
##  6 train/test split  1.73    21      1.79 Preprocessor1_Model1
##  7 train/test split  1.69    28      1.60 Preprocessor1_Model1
##  8 train/test split 14.9     31     15.7  Preprocessor1_Model1
##  9 train/test split 14.4     33     15.6  Preprocessor1_Model1
## 10 train/test split 14.8     46     16.2  Preprocessor1_Model1
## # ℹ 1,130 more rows
```
